{
	"goToPage-Main": {
		"category": "wm.NavigationVariable",
		"operation": "gotoPage",
		"pageName": "Main",
		"_id": "wm-wm.NavigationVariable1389180517517",
		"name": "goToPage-Main"
	},
	"supportedLocale": {
		"name": "supportedLocale",
		"type": "string",
		"isList": false,
		"owner": "App",
		"dataSet": {
			"en": "English"
		},
		"dataBinding": {
			"dataValue": ""
		},
		"saveInPhonegap": false,
		"category": "wm.Variable",
		"_id": "wm-wm.Variable1402640443182"
	},
	"HrdbEmployeeData": {
		"name": "HrdbEmployeeData",
		"type": "Employee",
		"isList": true,
		"owner": "App",
		"dataSet": {
			"dataValue": ""
		},
		"dataBinding": {},
		"saveInPhonegap": false,
		"firstRow": 0,
		"maxResults": 20,
		"designMaxResults": 10,
		"operation": "read",
		"startUpdate": true,
		"autoUpdate": true,
		"inFlightBehavior": "executeLast",
		"transformationRequired": false,
		"liveSource": "hrdb",
		"ignoreCase": false,
		"matchMode": "start",
		"category": "wm.LiveVariable",
		"_id": "wm-wm.LiveVariable1410157321681",
		"package": "com.hrdb.Employee",
		"tableName": "EMPLOYEE",
		"properties": [
			"EMPLOYEE_1",
			"EMPLOYEE_2"
		],
		"relatedTables": [
			{
				"columnName": "department",
				"relationName": "EMPLOYEE_1",
				"type": "Department",
				"package": "com.hrdb.Employee",
				"watchOn": "HrdbDepartmentData"
			},
			{
				"columnName": "employee",
				"relationName": "EMPLOYEE_2",
				"type": "Employee",
				"package": "com.hrdb.Employee",
				"watchOn": "HrdbEmployeeData"
			}
		],
		"propertiesMap": {
			"columns": [
				{
					"fieldName": "eid",
					"type": "integer",
					"fullyQualifiedType": "integer",
					"columnName": "EID",
					"isPrimaryKey": true,
					"notNull": true,
					"length": 255,
					"precision": 19,
					"generator": "identity",
					"isRelated": false
				},
				{
					"fieldName": "firstname",
					"type": "string",
					"fullyQualifiedType": "string",
					"columnName": "FIRSTNAME",
					"isPrimaryKey": false,
					"notNull": false,
					"length": 255,
					"precision": 19,
					"generator": null,
					"isRelated": false
				},
				{
					"fieldName": "lastname",
					"type": "string",
					"fullyQualifiedType": "string",
					"columnName": "LASTNAME",
					"isPrimaryKey": false,
					"notNull": false,
					"length": 255,
					"precision": 19,
					"generator": null,
					"isRelated": false
				},
				{
					"fieldName": "street",
					"type": "string",
					"fullyQualifiedType": "string",
					"columnName": "STREET",
					"isPrimaryKey": false,
					"notNull": false,
					"length": 255,
					"precision": 19,
					"generator": null,
					"isRelated": false
				},
				{
					"fieldName": "city",
					"type": "string",
					"fullyQualifiedType": "string",
					"columnName": "CITY",
					"isPrimaryKey": false,
					"notNull": false,
					"length": 255,
					"precision": 19,
					"generator": null,
					"isRelated": false
				},
				{
					"fieldName": "state",
					"type": "string",
					"fullyQualifiedType": "string",
					"columnName": "STATE",
					"isPrimaryKey": false,
					"notNull": false,
					"length": 2,
					"precision": 19,
					"generator": null,
					"isRelated": false
				},
				{
					"fieldName": "zip",
					"type": "string",
					"fullyQualifiedType": "string",
					"columnName": "ZIP",
					"isPrimaryKey": false,
					"notNull": false,
					"length": 255,
					"precision": 19,
					"generator": null,
					"isRelated": false
				},
				{
					"fieldName": "birthdate",
					"type": "date",
					"fullyQualifiedType": "date",
					"columnName": "BIRTHDATE",
					"isPrimaryKey": false,
					"notNull": false,
					"length": 10,
					"precision": 19,
					"generator": null,
					"isRelated": false
				},
				{
					"fieldName": "picurl",
					"type": "string",
					"fullyQualifiedType": "string",
					"columnName": "PICURL",
					"isPrimaryKey": false,
					"notNull": false,
					"length": 255,
					"precision": 19,
					"generator": null,
					"isRelated": false
				},
				{
					"fieldName": "twitterid",
					"type": "string",
					"fullyQualifiedType": "string",
					"columnName": "TWITTERID",
					"isPrimaryKey": false,
					"notNull": false,
					"length": 40,
					"precision": 19,
					"generator": null,
					"isRelated": false
				},
				{
					"fieldName": "department",
					"type": "integer",
					"fullyQualifiedType": "integer",
					"columnName": "deptid",
					"isPrimaryKey": false,
					"notNull": false,
					"length": 255,
					"precision": 19,
					"generator": "assigned",
					"isRelated": true,
					"relatedTableName": "DEPARTMENT",
					"relatedEntityName": "Department",
					"columns": [
						{
							"fieldName": "deptid",
							"type": "integer",
							"fullyQualifiedType": "integer",
							"columnName": "DEPTID",
							"isPrimaryKey": true,
							"notNull": true,
							"length": 255,
							"precision": 19,
							"generator": "identity",
							"isRelated": false
						},
						{
							"fieldName": "name",
							"type": "string",
							"fullyQualifiedType": "string",
							"columnName": "NAME",
							"isPrimaryKey": false,
							"notNull": false,
							"length": 255,
							"precision": 19,
							"generator": null,
							"isRelated": false
						},
						{
							"fieldName": "budget",
							"type": "integer",
							"fullyQualifiedType": "integer",
							"columnName": "BUDGET",
							"isPrimaryKey": false,
							"notNull": false,
							"length": 255,
							"precision": 19,
							"generator": null,
							"isRelated": false
						},
						{
							"fieldName": "q1",
							"type": "integer",
							"fullyQualifiedType": "integer",
							"columnName": "Q1",
							"isPrimaryKey": false,
							"notNull": false,
							"length": 255,
							"precision": 19,
							"generator": null,
							"isRelated": false
						},
						{
							"fieldName": "q2",
							"type": "integer",
							"fullyQualifiedType": "integer",
							"columnName": "Q2",
							"isPrimaryKey": false,
							"notNull": false,
							"length": 255,
							"precision": 19,
							"generator": null,
							"isRelated": false
						},
						{
							"fieldName": "q3",
							"type": "integer",
							"fullyQualifiedType": "integer",
							"columnName": "Q3",
							"isPrimaryKey": false,
							"notNull": false,
							"length": 255,
							"precision": 19,
							"generator": null,
							"isRelated": false
						},
						{
							"fieldName": "q4",
							"type": "integer",
							"fullyQualifiedType": "integer",
							"columnName": "Q4",
							"isPrimaryKey": false,
							"notNull": false,
							"length": 255,
							"precision": 19,
							"generator": null,
							"isRelated": false
						},
						{
							"fieldName": "deptcode",
							"type": "string",
							"fullyQualifiedType": "string",
							"columnName": "DEPTCODE",
							"isPrimaryKey": false,
							"notNull": false,
							"length": 20,
							"precision": 19,
							"generator": null,
							"isRelated": false
						},
						{
							"fieldName": "location",
							"type": "string",
							"fullyQualifiedType": "string",
							"columnName": "LOCATION",
							"isPrimaryKey": false,
							"notNull": false,
							"length": 255,
							"precision": 19,
							"generator": null,
							"isRelated": false
						},
						{
							"fieldName": "tenantid",
							"type": "integer",
							"fullyQualifiedType": "integer",
							"columnName": "TENANTID",
							"isPrimaryKey": false,
							"notNull": false,
							"length": 255,
							"precision": 19,
							"generator": null,
							"isRelated": false
						}
					],
					"isList": false
				},
				{
					"fieldName": "employee",
					"type": "integer",
					"fullyQualifiedType": "integer",
					"columnName": "managerid",
					"isPrimaryKey": false,
					"notNull": false,
					"length": 255,
					"precision": 19,
					"generator": null,
					"isRelated": true,
					"relatedTableName": "EMPLOYEE",
					"relatedEntityName": "Employee",
					"columns": [
						{
							"fieldName": "eid",
							"type": "integer",
							"fullyQualifiedType": "integer",
							"columnName": "EID",
							"isPrimaryKey": true,
							"notNull": true,
							"length": 255,
							"precision": 19,
							"generator": "identity",
							"isRelated": false
						},
						{
							"fieldName": "firstname",
							"type": "string",
							"fullyQualifiedType": "string",
							"columnName": "FIRSTNAME",
							"isPrimaryKey": false,
							"notNull": false,
							"length": 255,
							"precision": 19,
							"generator": null,
							"isRelated": false
						},
						{
							"fieldName": "lastname",
							"type": "string",
							"fullyQualifiedType": "string",
							"columnName": "LASTNAME",
							"isPrimaryKey": false,
							"notNull": false,
							"length": 255,
							"precision": 19,
							"generator": null,
							"isRelated": false
						},
						{
							"fieldName": "street",
							"type": "string",
							"fullyQualifiedType": "string",
							"columnName": "STREET",
							"isPrimaryKey": false,
							"notNull": false,
							"length": 255,
							"precision": 19,
							"generator": null,
							"isRelated": false
						},
						{
							"fieldName": "city",
							"type": "string",
							"fullyQualifiedType": "string",
							"columnName": "CITY",
							"isPrimaryKey": false,
							"notNull": false,
							"length": 255,
							"precision": 19,
							"generator": null,
							"isRelated": false
						},
						{
							"fieldName": "state",
							"type": "string",
							"fullyQualifiedType": "string",
							"columnName": "STATE",
							"isPrimaryKey": false,
							"notNull": false,
							"length": 2,
							"precision": 19,
							"generator": null,
							"isRelated": false
						},
						{
							"fieldName": "zip",
							"type": "string",
							"fullyQualifiedType": "string",
							"columnName": "ZIP",
							"isPrimaryKey": false,
							"notNull": false,
							"length": 255,
							"precision": 19,
							"generator": null,
							"isRelated": false
						},
						{
							"fieldName": "birthdate",
							"type": "date",
							"fullyQualifiedType": "date",
							"columnName": "BIRTHDATE",
							"isPrimaryKey": false,
							"notNull": false,
							"length": 10,
							"precision": 19,
							"generator": null,
							"isRelated": false
						},
						{
							"fieldName": "picurl",
							"type": "string",
							"fullyQualifiedType": "string",
							"columnName": "PICURL",
							"isPrimaryKey": false,
							"notNull": false,
							"length": 255,
							"precision": 19,
							"generator": null,
							"isRelated": false
						},
						{
							"fieldName": "twitterid",
							"type": "string",
							"fullyQualifiedType": "string",
							"columnName": "TWITTERID",
							"isPrimaryKey": false,
							"notNull": false,
							"length": 40,
							"precision": 19,
							"generator": null,
							"isRelated": false
						},
						{
							"fieldName": "department",
							"type": "integer",
							"fullyQualifiedType": "integer",
							"columnName": "deptid",
							"isPrimaryKey": false,
							"notNull": false,
							"length": 255,
							"precision": 19,
							"generator": "assigned",
							"isRelated": true,
							"relatedTableName": "DEPARTMENT",
							"relatedEntityName": "Department",
							"columns": [
								{
									"fieldName": "deptid",
									"type": "integer",
									"fullyQualifiedType": "integer",
									"columnName": "DEPTID",
									"isPrimaryKey": true,
									"notNull": true,
									"length": 255,
									"precision": 19,
									"generator": "identity",
									"isRelated": false
								},
								{
									"fieldName": "name",
									"type": "string",
									"fullyQualifiedType": "string",
									"columnName": "NAME",
									"isPrimaryKey": false,
									"notNull": false,
									"length": 255,
									"precision": 19,
									"generator": null,
									"isRelated": false
								},
								{
									"fieldName": "budget",
									"type": "integer",
									"fullyQualifiedType": "integer",
									"columnName": "BUDGET",
									"isPrimaryKey": false,
									"notNull": false,
									"length": 255,
									"precision": 19,
									"generator": null,
									"isRelated": false
								},
								{
									"fieldName": "q1",
									"type": "integer",
									"fullyQualifiedType": "integer",
									"columnName": "Q1",
									"isPrimaryKey": false,
									"notNull": false,
									"length": 255,
									"precision": 19,
									"generator": null,
									"isRelated": false
								},
								{
									"fieldName": "q2",
									"type": "integer",
									"fullyQualifiedType": "integer",
									"columnName": "Q2",
									"isPrimaryKey": false,
									"notNull": false,
									"length": 255,
									"precision": 19,
									"generator": null,
									"isRelated": false
								},
								{
									"fieldName": "q3",
									"type": "integer",
									"fullyQualifiedType": "integer",
									"columnName": "Q3",
									"isPrimaryKey": false,
									"notNull": false,
									"length": 255,
									"precision": 19,
									"generator": null,
									"isRelated": false
								},
								{
									"fieldName": "q4",
									"type": "integer",
									"fullyQualifiedType": "integer",
									"columnName": "Q4",
									"isPrimaryKey": false,
									"notNull": false,
									"length": 255,
									"precision": 19,
									"generator": null,
									"isRelated": false
								},
								{
									"fieldName": "deptcode",
									"type": "string",
									"fullyQualifiedType": "string",
									"columnName": "DEPTCODE",
									"isPrimaryKey": false,
									"notNull": false,
									"length": 20,
									"precision": 19,
									"generator": null,
									"isRelated": false
								},
								{
									"fieldName": "location",
									"type": "string",
									"fullyQualifiedType": "string",
									"columnName": "LOCATION",
									"isPrimaryKey": false,
									"notNull": false,
									"length": 255,
									"precision": 19,
									"generator": null,
									"isRelated": false
								},
								{
									"fieldName": "tenantid",
									"type": "integer",
									"fullyQualifiedType": "integer",
									"columnName": "TENANTID",
									"isPrimaryKey": false,
									"notNull": false,
									"length": 255,
									"precision": 19,
									"generator": null,
									"isRelated": false
								}
							],
							"isList": false
						},
						{
							"fieldName": "employee",
							"type": "integer",
							"fullyQualifiedType": "integer",
							"columnName": "managerid",
							"isPrimaryKey": false,
							"notNull": false,
							"length": 255,
							"precision": 19,
							"generator": null,
							"isRelated": true,
							"relatedTableName": "EMPLOYEE",
							"relatedEntityName": "Employee"
						},
						{
							"fieldName": "tenantid",
							"type": "integer",
							"fullyQualifiedType": "integer",
							"columnName": "TENANTID",
							"isPrimaryKey": false,
							"notNull": false,
							"length": 255,
							"precision": 19,
							"generator": null,
							"isRelated": false
						}
					],
					"isList": false
				},
				{
					"fieldName": "tenantid",
					"type": "integer",
					"fullyQualifiedType": "integer",
					"columnName": "TENANTID",
					"isPrimaryKey": false,
					"notNull": false,
					"length": 255,
					"precision": 19,
					"generator": null,
					"isRelated": false
				}
			],
			"entityName": "Employee",
			"fullyQualifiedName": "com.hrdb.Employee"
		}
	},
	"HrdbVacationData": {
		"name": "HrdbVacationData",
		"type": "Vacation",
		"isList": true,
		"owner": "App",
		"dataSet": {
			"dataValue": ""
		},
		"dataBinding": {},
		"saveInPhonegap": false,
		"firstRow": 0,
		"maxResults": 20,
		"designMaxResults": 10,
		"operation": "read",
		"startUpdate": true,
		"autoUpdate": true,
		"inFlightBehavior": "executeLast",
		"transformationRequired": false,
		"liveSource": "hrdb",
		"ignoreCase": false,
		"matchMode": "start",
		"category": "wm.LiveVariable",
		"_id": "wm-wm.LiveVariable1410157321696",
		"package": "com.hrdb.Vacation",
		"tableName": "VACATION",
		"properties": [
			"VACATION_1"
		],
		"relatedTables": [
			{
				"columnName": "employee",
				"relationName": "VACATION_1",
				"type": "Employee",
				"package": "com.hrdb.Vacation",
				"watchOn": "HrdbEmployeeData"
			}
		],
		"propertiesMap": {
			"columns": [
				{
					"fieldName": "id",
					"type": "integer",
					"fullyQualifiedType": "integer",
					"columnName": "ID",
					"isPrimaryKey": true,
					"notNull": true,
					"length": 255,
					"precision": 19,
					"generator": "identity",
					"isRelated": false
				},
				{
					"fieldName": "startdate",
					"type": "date",
					"fullyQualifiedType": "date",
					"columnName": "STARTDATE",
					"isPrimaryKey": false,
					"notNull": false,
					"length": 10,
					"precision": 19,
					"generator": null,
					"isRelated": false
				},
				{
					"fieldName": "enddate",
					"type": "date",
					"fullyQualifiedType": "date",
					"columnName": "ENDDATE",
					"isPrimaryKey": false,
					"notNull": false,
					"length": 10,
					"precision": 19,
					"generator": null,
					"isRelated": false
				},
				{
					"fieldName": "employee",
					"type": "integer",
					"fullyQualifiedType": "integer",
					"columnName": "empid",
					"isPrimaryKey": false,
					"notNull": true,
					"length": 255,
					"precision": 19,
					"generator": "assigned",
					"isRelated": true,
					"relatedTableName": "EMPLOYEE",
					"relatedEntityName": "Employee",
					"columns": [
						{
							"fieldName": "eid",
							"type": "integer",
							"fullyQualifiedType": "integer",
							"columnName": "EID",
							"isPrimaryKey": true,
							"notNull": true,
							"length": 255,
							"precision": 19,
							"generator": "identity",
							"isRelated": false
						},
						{
							"fieldName": "firstname",
							"type": "string",
							"fullyQualifiedType": "string",
							"columnName": "FIRSTNAME",
							"isPrimaryKey": false,
							"notNull": false,
							"length": 255,
							"precision": 19,
							"generator": null,
							"isRelated": false
						},
						{
							"fieldName": "lastname",
							"type": "string",
							"fullyQualifiedType": "string",
							"columnName": "LASTNAME",
							"isPrimaryKey": false,
							"notNull": false,
							"length": 255,
							"precision": 19,
							"generator": null,
							"isRelated": false
						},
						{
							"fieldName": "street",
							"type": "string",
							"fullyQualifiedType": "string",
							"columnName": "STREET",
							"isPrimaryKey": false,
							"notNull": false,
							"length": 255,
							"precision": 19,
							"generator": null,
							"isRelated": false
						},
						{
							"fieldName": "city",
							"type": "string",
							"fullyQualifiedType": "string",
							"columnName": "CITY",
							"isPrimaryKey": false,
							"notNull": false,
							"length": 255,
							"precision": 19,
							"generator": null,
							"isRelated": false
						},
						{
							"fieldName": "state",
							"type": "string",
							"fullyQualifiedType": "string",
							"columnName": "STATE",
							"isPrimaryKey": false,
							"notNull": false,
							"length": 2,
							"precision": 19,
							"generator": null,
							"isRelated": false
						},
						{
							"fieldName": "zip",
							"type": "string",
							"fullyQualifiedType": "string",
							"columnName": "ZIP",
							"isPrimaryKey": false,
							"notNull": false,
							"length": 255,
							"precision": 19,
							"generator": null,
							"isRelated": false
						},
						{
							"fieldName": "birthdate",
							"type": "date",
							"fullyQualifiedType": "date",
							"columnName": "BIRTHDATE",
							"isPrimaryKey": false,
							"notNull": false,
							"length": 10,
							"precision": 19,
							"generator": null,
							"isRelated": false
						},
						{
							"fieldName": "picurl",
							"type": "string",
							"fullyQualifiedType": "string",
							"columnName": "PICURL",
							"isPrimaryKey": false,
							"notNull": false,
							"length": 255,
							"precision": 19,
							"generator": null,
							"isRelated": false
						},
						{
							"fieldName": "twitterid",
							"type": "string",
							"fullyQualifiedType": "string",
							"columnName": "TWITTERID",
							"isPrimaryKey": false,
							"notNull": false,
							"length": 40,
							"precision": 19,
							"generator": null,
							"isRelated": false
						},
						{
							"fieldName": "deptid",
							"type": "integer",
							"fullyQualifiedType": "integer",
							"columnName": "DEPTID",
							"isPrimaryKey": false,
							"notNull": false,
							"length": 255,
							"precision": 19,
							"generator": "assigned",
							"isRelated": true
						},
						{
							"fieldName": "managerid",
							"type": "integer",
							"fullyQualifiedType": "integer",
							"columnName": "MANAGERID",
							"isPrimaryKey": false,
							"notNull": false,
							"length": 255,
							"precision": 19,
							"generator": null,
							"isRelated": true
						},
						{
							"fieldName": "tenantid",
							"type": "integer",
							"fullyQualifiedType": "integer",
							"columnName": "TENANTID",
							"isPrimaryKey": false,
							"notNull": false,
							"length": 255,
							"precision": 19,
							"generator": null,
							"isRelated": false
						}
					],
					"isList": false
				},
				{
					"fieldName": "tenantid",
					"type": "integer",
					"fullyQualifiedType": "integer",
					"columnName": "TENANTID",
					"isPrimaryKey": false,
					"notNull": false,
					"length": 255,
					"precision": 19,
					"generator": null,
					"isRelated": false
				}
			],
			"entityName": "Vacation",
			"fullyQualifiedName": "com.hrdb.Vacation"
		}
	},
	"HrdbDepartmentData": {
		"name": "HrdbDepartmentData",
		"type": "Department",
		"isList": true,
		"owner": "App",
		"dataSet": {
			"dataValue": ""
		},
		"dataBinding": {},
		"saveInPhonegap": false,
		"firstRow": 0,
		"maxResults": 20,
		"designMaxResults": 10,
		"operation": "read",
		"startUpdate": true,
		"autoUpdate": true,
		"inFlightBehavior": "executeLast",
		"transformationRequired": false,
		"liveSource": "hrdb",
		"ignoreCase": false,
		"matchMode": "start",
		"category": "wm.LiveVariable",
		"_id": "wm-wm.LiveVariable1410157321702",
		"package": "com.hrdb.Department",
		"tableName": "DEPARTMENT",
		"propertiesMap": {
			"columns": [
				{
					"fieldName": "deptid",
					"type": "integer",
					"fullyQualifiedType": "integer",
					"columnName": "DEPTID",
					"isPrimaryKey": true,
					"notNull": true,
					"length": 255,
					"precision": 19,
					"generator": "identity",
					"isRelated": false
				},
				{
					"fieldName": "name",
					"type": "string",
					"fullyQualifiedType": "string",
					"columnName": "NAME",
					"isPrimaryKey": false,
					"notNull": false,
					"length": 255,
					"precision": 19,
					"generator": null,
					"isRelated": false
				},
				{
					"fieldName": "budget",
					"type": "integer",
					"fullyQualifiedType": "integer",
					"columnName": "BUDGET",
					"isPrimaryKey": false,
					"notNull": false,
					"length": 255,
					"precision": 19,
					"generator": null,
					"isRelated": false
				},
				{
					"fieldName": "q1",
					"type": "integer",
					"fullyQualifiedType": "integer",
					"columnName": "Q1",
					"isPrimaryKey": false,
					"notNull": false,
					"length": 255,
					"precision": 19,
					"generator": null,
					"isRelated": false
				},
				{
					"fieldName": "q2",
					"type": "integer",
					"fullyQualifiedType": "integer",
					"columnName": "Q2",
					"isPrimaryKey": false,
					"notNull": false,
					"length": 255,
					"precision": 19,
					"generator": null,
					"isRelated": false
				},
				{
					"fieldName": "q3",
					"type": "integer",
					"fullyQualifiedType": "integer",
					"columnName": "Q3",
					"isPrimaryKey": false,
					"notNull": false,
					"length": 255,
					"precision": 19,
					"generator": null,
					"isRelated": false
				},
				{
					"fieldName": "q4",
					"type": "integer",
					"fullyQualifiedType": "integer",
					"columnName": "Q4",
					"isPrimaryKey": false,
					"notNull": false,
					"length": 255,
					"precision": 19,
					"generator": null,
					"isRelated": false
				},
				{
					"fieldName": "deptcode",
					"type": "string",
					"fullyQualifiedType": "string",
					"columnName": "DEPTCODE",
					"isPrimaryKey": false,
					"notNull": false,
					"length": 20,
					"precision": 19,
					"generator": null,
					"isRelated": false
				},
				{
					"fieldName": "location",
					"type": "string",
					"fullyQualifiedType": "string",
					"columnName": "LOCATION",
					"isPrimaryKey": false,
					"notNull": false,
					"length": 255,
					"precision": 19,
					"generator": null,
					"isRelated": false
				},
				{
					"fieldName": "tenantid",
					"type": "integer",
					"fullyQualifiedType": "integer",
					"columnName": "TENANTID",
					"isPrimaryKey": false,
					"notNull": false,
					"length": 255,
					"precision": 19,
					"generator": null,
					"isRelated": false
				}
			],
			"entityName": "Department",
			"fullyQualifiedName": "com.hrdb.Department"
		}
	},
	"HrdbUserData": {
		"name": "HrdbUserData",
		"type": "User",
		"isList": true,
		"owner": "App",
		"dataSet": {
			"dataValue": ""
		},
		"dataBinding": {},
		"saveInPhonegap": false,
		"firstRow": 0,
		"maxResults": 20,
		"designMaxResults": 10,
		"operation": "read",
		"startUpdate": true,
		"autoUpdate": true,
		"inFlightBehavior": "executeLast",
		"transformationRequired": false,
		"liveSource": "hrdb",
		"ignoreCase": false,
		"matchMode": "start",
		"category": "wm.LiveVariable",
		"_id": "wm-wm.LiveVariable1410157321708",
		"package": "com.hrdb.User",
		"tableName": "USER",
		"propertiesMap": {
			"columns": [
				{
					"fieldName": "userid",
					"type": "integer",
					"fullyQualifiedType": "integer",
					"columnName": "USERID",
					"isPrimaryKey": true,
					"notNull": true,
					"length": 255,
					"precision": 19,
					"generator": "identity",
					"isRelated": false
				},
				{
					"fieldName": "username",
					"type": "string",
					"fullyQualifiedType": "string",
					"columnName": "USERNAME",
					"isPrimaryKey": false,
					"notNull": false,
					"length": 20,
					"precision": 19,
					"generator": null,
					"isRelated": false
				},
				{
					"fieldName": "password",
					"type": "string",
					"fullyQualifiedType": "string",
					"columnName": "PASSWORD",
					"isPrimaryKey": false,
					"notNull": false,
					"length": 20,
					"precision": 19,
					"generator": null,
					"isRelated": false
				},
				{
					"fieldName": "role",
					"type": "string",
					"fullyQualifiedType": "string",
					"columnName": "ROLE",
					"isPrimaryKey": false,
					"notNull": false,
					"length": 20,
					"precision": 19,
					"generator": null,
					"isRelated": false
				},
				{
					"fieldName": "tenantid",
					"type": "integer",
					"fullyQualifiedType": "integer",
					"columnName": "TENANTID",
					"isPrimaryKey": false,
					"notNull": false,
					"length": 255,
					"precision": 19,
					"generator": null,
					"isRelated": false
				}
			],
			"entityName": "User",
			"fullyQualifiedName": "com.hrdb.User"
		}
	}
}